<?xml version="1.0" encoding="UTF-8" standalone="no"?>
<!-- Created with Inkscape (http://www.inkscape.org/) -->

<svg
   width="205.65733mm"
   height="79.767181mm"
   viewBox="0 0 205.65733 79.767181"
   version="1.1"
   id="svg5"
   inkscape:version="1.1.1 (3bf5ae0d25, 2021-09-20, custom)"
   sodipodi:docname="gantt_diagramm.svg"
   inkscape:export-filename="/home/emmanuel/404/cargo/gantt_diagramm.png"
   inkscape:export-xdpi="96"
   inkscape:export-ydpi="96"
   xmlns:inkscape="http://www.inkscape.org/namespaces/inkscape"
   xmlns:sodipodi="http://sodipodi.sourceforge.net/DTD/sodipodi-0.dtd"
   xmlns="http://www.w3.org/2000/svg"
   xmlns:svg="http://www.w3.org/2000/svg">
  <sodipodi:namedview
     id="namedview7"
     pagecolor="#ffffff"
     bordercolor="#666666"
     borderopacity="1.0"
     inkscape:pageshadow="2"
     inkscape:pageopacity="0.0"
     inkscape:pagecheckerboard="0"
     inkscape:document-units="mm"
     showgrid="false"
     inkscape:zoom="1.917518"
     inkscape:cx="402.86453"
     inkscape:cy="190.08948"
     inkscape:window-width="1920"
     inkscape:window-height="1048"
     inkscape:window-x="0"
     inkscape:window-y="0"
     inkscape:window-maximized="1"
     inkscape:current-layer="layer1" />
  <defs
     id="defs2">
    <marker
       style="overflow:visible"
       id="Arrow1Lend"
       refX="0"
       refY="0"
       orient="auto"
       inkscape:stockid="Arrow1Lend"
       inkscape:isstock="true">
      <path
         transform="matrix(-0.8,0,0,-0.8,-10,0)"
         style="fill:context-stroke;fill-rule:evenodd;stroke:context-stroke;stroke-width:1pt"
         d="M 0,0 5,-5 -12.5,0 5,5 Z"
         id="path32071" />
    </marker>
  </defs>
  <g
     inkscape:label="Layer 1"
     inkscape:groupmode="layer"
     id="layer1"
     transform="translate(-25.560955,-126.54001)">
    <rect
       style="fill:#ffeeaa;fill-rule:evenodd;stroke-width:0.635443"
       id="rect31"
       width="205.65733"
       height="9.9262066"
       x="25.560955"
       y="126.54001" />
    <text
       xml:space="preserve"
       style="font-style:normal;font-weight:normal;font-size:3.52778px;line-height:1.25;font-family:sans-serif;fill:#000000;fill-opacity:1;stroke:none;stroke-width:0.264583"
       x="29.50252"
       y="131.56152"
       id="text4831"><tspan
         sodipodi:role="line"
         id="tspan4829"
         style="font-size:3.52778px;stroke-width:0.264583"
         x="29.50252"
         y="131.56152">Planning</tspan></text>
    <text
       xml:space="preserve"
       style="font-style:normal;font-weight:normal;font-size:3.52778px;line-height:1.25;font-family:sans-serif;fill:#000000;fill-opacity:1;stroke:none;stroke-width:0.264583"
       x="48.415375"
       y="150.26297"
       id="text4831-7"><tspan
         sodipodi:role="line"
         id="tspan4829-5"
         style="font-size:3.52778px;stroke-width:0.264583"
         x="48.415375"
         y="150.26297" /></text>
    <rect
       style="fill:#ffaaaa;fill-rule:evenodd;stroke-width:0.382146"
       id="rect31-62"
       width="74.378983"
       height="9.9262066"
       x="25.560955"
       y="136.46622" />
    <text
       xml:space="preserve"
       style="font-style:normal;font-weight:normal;font-size:3.52778px;line-height:1.25;font-family:sans-serif;fill:#000000;fill-opacity:1;stroke:none;stroke-width:0.264583"
       x="28.025295"
       y="141.52545"
       id="text4831-9"><tspan
         sodipodi:role="line"
         id="tspan4829-1"
         style="font-size:3.52778px;stroke-width:0.264583"
         x="28.025295"
         y="141.52545">Diagrammes UML</tspan></text>
    <g
       id="g30873"
       transform="translate(40.969453,9.3335917)">
      <g
         id="g30863">
        <g
           id="g30866">
          <rect
             style="fill:#ffeeaa;fill-rule:evenodd;stroke-width:0.324432"
             id="rect31-7"
             width="53.609116"
             height="9.9262066"
             x="75.521141"
             y="157.07758" />
        </g>
      </g>
      <text
         xml:space="preserve"
         style="font-style:normal;font-weight:normal;font-size:3.52778px;line-height:1.25;font-family:sans-serif;fill:#000000;fill-opacity:1;stroke:none;stroke-width:0.264583"
         x="79.462708"
         y="162.09909"
         id="text4831-0"><tspan
           sodipodi:role="line"
           id="tspan4829-9"
           style="font-size:3.52778px;stroke-width:0.264583"
           x="79.462708"
           y="162.09909">Développer le back-end</tspan></text>
    </g>
    <g
       id="g30878"
       transform="translate(120.06654,11.638138)">
      <rect
         style="fill:#e9c6af;fill-rule:evenodd;stroke-width:0.31306"
         id="rect31-0"
         width="49.916691"
         height="9.9262066"
         x="13.119754"
         y="164.89043" />
      <text
         xml:space="preserve"
         style="font-style:normal;font-weight:normal;font-size:3.52778px;line-height:1.25;font-family:sans-serif;fill:#000000;fill-opacity:1;stroke:none;stroke-width:0.264583"
         x="17.061317"
         y="169.91194"
         id="text4831-6"><tspan
           sodipodi:role="line"
           id="tspan4829-2"
           style="font-size:3.52778px;stroke-width:0.264583"
           x="17.061317"
           y="169.91194">Développer le front-end</tspan></text>
    </g>
    <g
       id="g30860"
       transform="translate(-18.912853,1.1509705)">
      <rect
         style="fill:#c8beb7;fill-rule:evenodd;stroke-width:0.325571"
         id="rect31-6"
         width="53.986301"
         height="9.9262066"
         x="44.473808"
         y="145.24146" />
      <text
         xml:space="preserve"
         style="font-style:normal;font-weight:normal;font-size:3.52778px;line-height:1.25;font-family:sans-serif;fill:#000000;fill-opacity:1;stroke:none;stroke-width:0.264583"
         x="47.169708"
         y="150.25955"
         id="text14436"><tspan
           sodipodi:role="line"
           id="tspan14434"
           style="font-size:3.52778px;stroke-width:0.264583"
           x="47.169708"
           y="150.25955">Maquettage sur figma</tspan></text>
    </g>
    <rect
       style="fill:#aaffaa;fill-rule:evenodd;stroke-width:0.392307"
       id="rect31-0-6"
       width="78.386864"
       height="9.9262066"
       x="151.32582"
       y="186.45477" />
    <text
       xml:space="preserve"
       style="font-style:normal;font-weight:normal;font-size:3.52778px;line-height:1.25;font-family:sans-serif;fill:#000000;fill-opacity:1;stroke:none;stroke-width:0.264583"
       x="159.21693"
       y="191.90652"
       id="text4831-6-1"><tspan
         sodipodi:role="line"
         id="tspan4829-2-8"
         style="font-size:3.52778px;stroke-width:0.264583"
         x="159.21693"
         y="191.90652">Déployer sur Clever Cloud</tspan></text>
    <rect
       style="fill:#dde9af;fill-rule:evenodd;stroke-width:0.303353"
       id="rect31-0-6-7"
       width="46.869221"
       height="9.9262066"
       x="182.84348"
       y="196.38098" />
    <text
       xml:space="preserve"
       style="font-style:normal;font-weight:normal;font-size:3.52778px;line-height:1.25;font-family:sans-serif;fill:#000000;fill-opacity:1;stroke:none;stroke-width:0.264583"
       x="209.83463"
       y="201.4025"
       id="text4831-6-1-9"><tspan
         sodipodi:role="line"
         id="tspan4829-2-8-2"
         style="font-size:3.52778px;stroke-width:0.264583"
         x="209.83463"
         y="201.4025">Tester</tspan></text>
    <g
       id="g30883"
       transform="translate(-61.693534,-20.274471)">
      <rect
         style="fill:#aaffaa;fill-rule:evenodd;stroke-width:0.358617"
         id="rect31-0-6-0"
         width="65.501808"
         height="9.9262066"
         x="112.68232"
         y="176.75943" />
      <text
         xml:space="preserve"
         style="font-style:normal;font-weight:normal;font-size:3.52778px;line-height:1.25;font-family:sans-serif;fill:#000000;fill-opacity:1;stroke:none;stroke-width:0.264583"
         x="116.62389"
         y="181.78094"
         id="text4831-6-1-2"><tspan
           sodipodi:role="line"
           id="tspan4829-2-8-3"
           style="font-size:3.52778px;stroke-width:0.264583"
           x="116.62389"
           y="181.78094">Rédiger le cahier des charges</tspan></text>
    </g>
    <path
       style="fill:none;stroke:#000000;stroke-width:0.264583px;stroke-linecap:butt;stroke-linejoin:miter;stroke-opacity:1;marker-end:url(#Arrow1Lend)"
       d="m 32.345709,156.6221 c 0.173395,6.13395 18.688936,6.56524 18.688936,6.56524"
       id="path31251" />
    <path
       style="fill:none;stroke:#000000;stroke-width:0.264583px;stroke-linecap:butt;stroke-linejoin:miter;stroke-opacity:1;marker-end:url(#Arrow1Lend)"
       d="m 82.034318,166.73043 c 2.991739,6.14316 34.512982,6.68267 34.512982,6.68267"
       id="path32336" />
    <path
       style="fill:none;stroke:#000000;stroke-width:0.264583px;stroke-linecap:butt;stroke-linejoin:miter;stroke-opacity:1;marker-end:url(#Arrow1Lend)"
       d="m 73.384568,166.28267 c 3.515825,16.48535 59.554752,15.68749 59.554752,15.68749"
       id="path32340" />
    <path
       style="fill:none;stroke:#000000;stroke-width:0.264583px;stroke-linecap:butt;stroke-linejoin:miter;stroke-opacity:1;marker-end:url(#Arrow1Lend)"
       d="m 120.46266,176.41964 c 4.14753,15.69136 30.32682,16.28228 30.32682,16.28228"
       id="path32342" />
    <path
       style="fill:none;stroke:#000000;stroke-width:0.264583px;stroke-linecap:butt;stroke-linejoin:miter;stroke-opacity:1;marker-end:url(#Arrow1Lend)"
       d="m 138.62455,186.51252 c 3.25477,4.04079 12.8599,3.32672 12.8599,3.32672"
       id="path32344" />
    <path
       style="fill:none;stroke:#000000;stroke-width:0.264583px;stroke-linecap:butt;stroke-linejoin:miter;stroke-opacity:1;marker-end:url(#Arrow1Lend)"
       d="m 161.94025,196.34789 c 3.94583,7.76284 20.89686,6.59704 20.89686,6.59704"
       id="path32346" />
  </g>
</svg>
